{
    "type": "EQUITY",
    "symbol": "UVAN.BK",
    "name": "Univanich Palm Oil Public Company Limited",
    "price": 5.8,
    "currency": "THB",
    "currency_symbol": "THB",
    "open": 5.95,
    "low": 5.75,
    "high": 5.95,
    "previous_close": 5.9,
    "change_abs": -0.099999905,
    "change_pct": -0.016949136,
    "52_week_low": 2.86,
    "52_week_low_change_abs": 2.9400003,
    "52_week_low_change_pct": 1.0279722,
    "52_week_high": 6.05,
    "52_week_high_change_abs": -0.25,
    "52_week_high_change_pct": -0.041322313,
    "volume": 398800,
    "shares_outstanding": 940000000,
    "market_cap": 5452000256,
    "exchange_code": "SET",
    "exchange_name": "Thailand",
    "exchange_tz_name": "Asia\/Bangkok",
    "exchange_tz_code": "ICT",
    "last_update": 1610098623000
}