{
    "symbol": "UVAN.BK",
    "currency": "THB",
    "currency_symbol": "THB",
    "series": {
        "1y": {
            "1d": {
                "date": [
                    1577674800000,
                    1577934000000,
                    1578020400000,
                    1578279600000,
                    1578366000000,
                    1578452400000,
                    1578538800000,
                    1578625200000,
                    1578884400000,
                    1578970800000,
                    1579057200000,
                    1579143600000,
                    1579230000000,
                    1579489200000,
                    1579575600000,
                    1579662000000,
                    1579748400000,
                    1579834800000,
                    1580094000000,
                    1580180400000,
                    1580266800000,
                    1580353200000,
                    1580439600000,
                    1580698800000,
                    1580785200000,
                    1580871600000,
                    1580958000000,
                    1581044400000,
                    1581390000000,
                    1581476400000,
                    1581562800000,
                    1581649200000,
                    1581908400000,
                    1581994800000,
                    1582081200000,
                    1582167600000,
                    1582254000000,
                    1582513200000,
                    1582599600000,
                    1582686000000,
                    1582772400000,
                    1582858800000,
                    1583118000000,
                    1583204400000,
                    1583290800000,
                    1583377200000,
                    1583463600000,
                    1583722800000,
                    1583809200000,
                    1583895600000,
                    1583982000000,
                    1584068400000,
                    1584327600000,
                    1584414000000,
                    1584500400000,
                    1584586800000,
                    1584673200000,
                    1584932400000,
                    1585018800000,
                    1585105200000,
                    1585191600000,
                    1585278000000,
                    1585537200000,
                    1585623600000,
                    1585710000000,
                    1585796400000,
                    1585882800000,
                    1586228400000,
                    1586314800000,
                    1586401200000,
                    1586487600000,
                    1586746800000,
                    1586833200000,
                    1586919600000,
                    1587006000000,
                    1587092400000,
                    1587351600000,
                    1587438000000,
                    1587524400000,
                    1587610800000,
                    1587697200000,
                    1587956400000,
                    1588042800000,
                    1588129200000,
                    1588215600000,
                    1588647600000,
                    1588820400000,
                    1588906800000,
                    1589166000000,
                    1589252400000,
                    1589338800000,
                    1589425200000,
                    1589511600000,
                    1589770800000,
                    1589857200000,
                    1589943600000,
                    1590030000000,
                    1590116400000,
                    1590375600000,
                    1590462000000,
                    1590548400000,
                    1590634800000,
                    1590721200000,
                    1590980400000,
                    1591066800000,
                    1591239600000,
                    1591326000000,
                    1591585200000,
                    1591671600000,
                    1591758000000,
                    1591844400000,
                    1591930800000,
                    1592190000000,
                    1592276400000,
                    1592362800000,
                    1592449200000,
                    1592535600000,
                    1592794800000,
                    1592881200000,
                    1592967600000,
                    1593054000000,
                    1593140400000,
                    1593399600000,
                    1593486000000,
                    1593572400000,
                    1593658800000,
                    1593745200000,
                    1594090800000,
                    1594177200000,
                    1594263600000,
                    1594350000000,
                    1594609200000,
                    1594695600000,
                    1594782000000,
                    1594868400000,
                    1594954800000,
                    1595214000000,
                    1595300400000,
                    1595386800000,
                    1595473200000,
                    1595559600000,
                    1595991600000,
                    1596078000000,
                    1596164400000,
                    1596423600000,
                    1596510000000,
                    1596596400000,
                    1596682800000,
                    1596769200000,
                    1597028400000,
                    1597114800000,
                    1597287600000,
                    1597374000000,
                    1597633200000,
                    1597719600000,
                    1597806000000,
                    1597892400000,
                    1597978800000,
                    1598238000000,
                    1598324400000,
                    1598410800000,
                    1598497200000,
                    1598583600000,
                    1598842800000,
                    1598929200000,
                    1599015600000,
                    1599102000000,
                    1599534000000,
                    1599620400000,
                    1599706800000,
                    1599793200000,
                    1600052400000,
                    1600138800000,
                    1600225200000,
                    1600311600000,
                    1600398000000,
                    1600657200000,
                    1600743600000,
                    1600830000000,
                    1600916400000,
                    1601002800000,
                    1601262000000,
                    1601348400000,
                    1601434800000,
                    1601521200000,
                    1601607600000,
                    1601866800000,
                    1601953200000,
                    1602039600000,
                    1602126000000,
                    1602212400000,
                    1602471600000,
                    1602644400000,
                    1602730800000,
                    1602817200000,
                    1603076400000,
                    1603162800000,
                    1603249200000,
                    1603335600000,
                    1603681200000,
                    1603767600000,
                    1603854000000,
                    1603940400000,
                    1604026800000,
                    1604286000000,
                    1604372400000,
                    1604458800000,
                    1604545200000,
                    1604631600000,
                    1604890800000,
                    1604977200000,
                    1605063600000,
                    1605150000000,
                    1605236400000,
                    1605495600000,
                    1605582000000,
                    1605668400000,
                    1605754800000,
                    1605841200000,
                    1606100400000,
                    1606186800000,
                    1606273200000,
                    1606359600000,
                    1606446000000,
                    1606705200000,
                    1606791600000,
                    1606878000000,
                    1606964400000,
                    1607050800000,
                    1607396400000,
                    1607482800000,
                    1607914800000,
                    1608001200000,
                    1608087600000,
                    1608174000000,
                    1608260400000,
                    1608519600000,
                    1608606000000,
                    1608692400000,
                    1608778800000,
                    1608865200000,
                    1609124400000,
                    1609210800000,
                    1609297200000
                ],
                "open": [
                    5.349999904632568359375,
                    5.30000019073486328125,
                    5.30000019073486328125,
                    5.30000019073486328125,
                    5.400000095367431640625,
                    5.30000019073486328125,
                    5.05000019073486328125,
                    5.05000019073486328125,
                    5.099999904632568359375,
                    5.25,
                    5.30000019073486328125,
                    5.30000019073486328125,
                    5.5,
                    5.44999980926513671875,
                    5.44999980926513671875,
                    5.349999904632568359375,
                    5.349999904632568359375,
                    5.30000019073486328125,
                    5.349999904632568359375,
                    5.349999904632568359375,
                    5.30000019073486328125,
                    5.25,
                    5.30000019073486328125,
                    5.30000019073486328125,
                    5.25,
                    5.30000019073486328125,
                    5.400000095367431640625,
                    5.349999904632568359375,
                    5.400000095367431640625,
                    5.349999904632568359375,
                    5.400000095367431640625,
                    5.44999980926513671875,
                    5.400000095367431640625,
                    5.400000095367431640625,
                    5.400000095367431640625,
                    5.349999904632568359375,
                    5.400000095367431640625,
                    5.30000019073486328125,
                    5.30000019073486328125,
                    5.25,
                    4.980000019073486328125,
                    5.099999904632568359375,
                    4.5799999237060546875,
                    4.480000019073486328125,
                    4.480000019073486328125,
                    4.80000019073486328125,
                    4.61999988555908203125,
                    4.599999904632568359375,
                    4.559999942779541015625,
                    4.519999980926513671875,
                    4.400000095367431640625,
                    2.8599998950958251953125,
                    4,
                    3.5,
                    4.19999980926513671875,
                    3.980000019073486328125,
                    3.7999999523162841796875,
                    3.88000011444091796875,
                    3.53999996185302734375,
                    3.599999904632568359375,
                    3.7999999523162841796875,
                    3.7999999523162841796875,
                    3.7799999713897705078125,
                    3.7799999713897705078125,
                    3.7000000476837158203125,
                    3.7200000286102294921875,
                    3.980000019073486328125,
                    3.7200000286102294921875,
                    3.7000000476837158203125,
                    3.7400000095367431640625,
                    3.7999999523162841796875,
                    3.7599999904632568359375,
                    3.7799999713897705078125,
                    3.7599999904632568359375,
                    3.7999999523162841796875,
                    3.6800000667572021484375,
                    3.6600000858306884765625,
                    3.7200000286102294921875,
                    3.7599999904632568359375,
                    3.7599999904632568359375,
                    3.7200000286102294921875,
                    3.7999999523162841796875,
                    3.7999999523162841796875,
                    3.8399999141693115234375,
                    4.059999942779541015625,
                    3.980000019073486328125,
                    4,
                    3.980000019073486328125,
                    4.03999996185302734375,
                    4.059999942779541015625,
                    4.11999988555908203125,
                    4.03999996185302734375,
                    4,
                    4.0799999237060546875,
                    4.019999980926513671875,
                    4.059999942779541015625,
                    4.099999904632568359375,
                    4.099999904632568359375,
                    4.099999904632568359375,
                    4.11999988555908203125,
                    4.139999866485595703125,
                    4.280000209808349609375,
                    4.19999980926513671875,
                    4.19999980926513671875,
                    4.179999828338623046875,
                    4.219999790191650390625,
                    4.2399997711181640625,
                    4.2600002288818359375,
                    4.30000019073486328125,
                    4.280000209808349609375,
                    4.30000019073486328125,
                    4.2399997711181640625,
                    4.2600002288818359375,
                    4.2600002288818359375,
                    4.2399997711181640625,
                    4.2600002288818359375,
                    4.30000019073486328125,
                    4.38000011444091796875,
                    4.2600002288818359375,
                    4.320000171661376953125,
                    4.280000209808349609375,
                    4.280000209808349609375,
                    4.2399997711181640625,
                    4.2399997711181640625,
                    4.280000209808349609375,
                    4.2600002288818359375,
                    4.340000152587890625,
                    4.30000019073486328125,
                    4.340000152587890625,
                    4.30000019073486328125,
                    4.30000019073486328125,
                    4.320000171661376953125,
                    4.340000152587890625,
                    4.38000011444091796875,
                    4.360000133514404296875,
                    4.360000133514404296875,
                    4.360000133514404296875,
                    4.360000133514404296875,
                    4.360000133514404296875,
                    4.360000133514404296875,
                    4.360000133514404296875,
                    4.440000057220458984375,
                    4.4200000762939453125,
                    4.4200000762939453125,
                    4.440000057220458984375,
                    4.46000003814697265625,
                    4.46000003814697265625,
                    4.480000019073486328125,
                    4.480000019073486328125,
                    4.69999980926513671875,
                    4.900000095367431640625,
                    4.679999828338623046875,
                    4.69999980926513671875,
                    4.53999996185302734375,
                    4.480000019073486328125,
                    4.519999980926513671875,
                    4.480000019073486328125,
                    4.519999980926513671875,
                    4.53999996185302734375,
                    4.53999996185302734375,
                    4.719999790191650390625,
                    4.639999866485595703125,
                    4.559999942779541015625,
                    4.519999980926513671875,
                    4.5799999237060546875,
                    4.5,
                    4.519999980926513671875,
                    4.53999996185302734375,
                    4.5,
                    4.320000171661376953125,
                    4.46000003814697265625,
                    4.400000095367431640625,
                    4.360000133514404296875,
                    4.38000011444091796875,
                    4.400000095367431640625,
                    4.38000011444091796875,
                    4.480000019073486328125,
                    4.519999980926513671875,
                    4.53999996185302734375,
                    4.61999988555908203125,
                    4.80000019073486328125,
                    4.69999980926513671875,
                    4.659999847412109375,
                    4.659999847412109375,
                    4.639999866485595703125,
                    4.719999790191650390625,
                    4.679999828338623046875,
                    4.780000209808349609375,
                    4.780000209808349609375,
                    4.780000209808349609375,
                    4.7600002288818359375,
                    4.9200000762939453125,
                    4.80000019073486328125,
                    4.7600002288818359375,
                    4.980000019073486328125,
                    4.679999828338623046875,
                    4.780000209808349609375,
                    4.719999790191650390625,
                    4.820000171661376953125,
                    4.719999790191650390625,
                    4.900000095367431640625,
                    4.900000095367431640625,
                    4.840000152587890625,
                    4.80000019073486328125,
                    4.860000133514404296875,
                    4.900000095367431640625,
                    4.88000011444091796875,
                    4.88000011444091796875,
                    4.900000095367431640625,
                    4.9200000762939453125,
                    5.349999904632568359375,
                    4.840000152587890625,
                    4.88000011444091796875,
                    4.900000095367431640625,
                    4.900000095367431640625,
                    4.980000019073486328125,
                    5,
                    4.940000057220458984375,
                    4.980000019073486328125,
                    5.05000019073486328125,
                    5.05000019073486328125,
                    5.099999904632568359375,
                    5.05000019073486328125,
                    5.150000095367431640625,
                    5.150000095367431640625,
                    5.05000019073486328125,
                    5.05000019073486328125,
                    5.099999904632568359375,
                    5.099999904632568359375,
                    5.150000095367431640625,
                    5.150000095367431640625,
                    5.25,
                    5.349999904632568359375,
                    5.25,
                    5.44999980926513671875,
                    5.5,
                    5.349999904632568359375,
                    5.25,
                    5.349999904632568359375,
                    5.400000095367431640625,
                    5.44999980926513671875,
                    5.599999904632568359375,
                    5.69999980926513671875,
                    5.75
                ],
                "high": [
                    5.400000095367431640625,
                    5.349999904632568359375,
                    5.400000095367431640625,
                    5.400000095367431640625,
                    5.400000095367431640625,
                    5.30000019073486328125,
                    5.19999980926513671875,
                    5.099999904632568359375,
                    5.25,
                    5.30000019073486328125,
                    5.349999904632568359375,
                    5.349999904632568359375,
                    5.5,
                    5.44999980926513671875,
                    5.44999980926513671875,
                    5.400000095367431640625,
                    5.349999904632568359375,
                    5.349999904632568359375,
                    5.349999904632568359375,
                    5.349999904632568359375,
                    5.30000019073486328125,
                    5.30000019073486328125,
                    5.30000019073486328125,
                    5.30000019073486328125,
                    5.349999904632568359375,
                    5.44999980926513671875,
                    5.400000095367431640625,
                    5.400000095367431640625,
                    5.400000095367431640625,
                    5.400000095367431640625,
                    5.44999980926513671875,
                    5.44999980926513671875,
                    5.44999980926513671875,
                    5.400000095367431640625,
                    5.400000095367431640625,
                    5.349999904632568359375,
                    5.400000095367431640625,
                    5.30000019073486328125,
                    5.30000019073486328125,
                    5.25,
                    5.19999980926513671875,
                    5.099999904632568359375,
                    4.5799999237060546875,
                    4.5,
                    4.5,
                    4.860000133514404296875,
                    4.639999866485595703125,
                    4.599999904632568359375,
                    4.559999942779541015625,
                    4.519999980926513671875,
                    4.400000095367431640625,
                    4.019999980926513671875,
                    4,
                    4.2399997711181640625,
                    4.19999980926513671875,
                    3.980000019073486328125,
                    3.940000057220458984375,
                    3.88000011444091796875,
                    3.7799999713897705078125,
                    3.88000011444091796875,
                    3.7999999523162841796875,
                    3.8199999332427978515625,
                    3.7799999713897705078125,
                    3.7799999713897705078125,
                    3.7799999713897705078125,
                    3.7200000286102294921875,
                    3.980000019073486328125,
                    4,
                    3.7400000095367431640625,
                    3.7999999523162841796875,
                    3.7999999523162841796875,
                    3.88000011444091796875,
                    3.7799999713897705078125,
                    3.8199999332427978515625,
                    3.7999999523162841796875,
                    3.7200000286102294921875,
                    3.7200000286102294921875,
                    3.7400000095367431640625,
                    3.7799999713897705078125,
                    3.7799999713897705078125,
                    3.7799999713897705078125,
                    3.8199999332427978515625,
                    3.8399999141693115234375,
                    4.059999942779541015625,
                    4.159999847412109375,
                    4.099999904632568359375,
                    4.059999942779541015625,
                    4.03999996185302734375,
                    4.03999996185302734375,
                    4.0799999237060546875,
                    4.11999988555908203125,
                    4.03999996185302734375,
                    4.03999996185302734375,
                    4.0799999237060546875,
                    4.0799999237060546875,
                    4.099999904632568359375,
                    4.11999988555908203125,
                    4.11999988555908203125,
                    4.139999866485595703125,
                    4.159999847412109375,
                    4.219999790191650390625,
                    4.280000209808349609375,
                    4.2399997711181640625,
                    4.2399997711181640625,
                    4.2399997711181640625,
                    4.2399997711181640625,
                    4.2600002288818359375,
                    4.320000171661376953125,
                    4.30000019073486328125,
                    4.340000152587890625,
                    4.340000152587890625,
                    4.280000209808349609375,
                    4.30000019073486328125,
                    4.280000209808349609375,
                    4.280000209808349609375,
                    4.280000209808349609375,
                    4.38000011444091796875,
                    4.38000011444091796875,
                    4.38000011444091796875,
                    4.38000011444091796875,
                    4.280000209808349609375,
                    4.280000209808349609375,
                    4.2399997711181640625,
                    4.280000209808349609375,
                    4.280000209808349609375,
                    4.30000019073486328125,
                    4.340000152587890625,
                    4.360000133514404296875,
                    4.340000152587890625,
                    4.38000011444091796875,
                    4.320000171661376953125,
                    4.360000133514404296875,
                    4.360000133514404296875,
                    4.38000011444091796875,
                    4.360000133514404296875,
                    4.38000011444091796875,
                    4.360000133514404296875,
                    4.38000011444091796875,
                    4.38000011444091796875,
                    4.38000011444091796875,
                    4.46000003814697265625,
                    4.440000057220458984375,
                    4.440000057220458984375,
                    4.440000057220458984375,
                    4.46000003814697265625,
                    4.46000003814697265625,
                    4.46000003814697265625,
                    4.480000019073486328125,
                    4.599999904632568359375,
                    4.69999980926513671875,
                    4.900000095367431640625,
                    4.7399997711181640625,
                    4.69999980926513671875,
                    4.53999996185302734375,
                    4.53999996185302734375,
                    4.519999980926513671875,
                    4.53999996185302734375,
                    4.559999942779541015625,
                    4.53999996185302734375,
                    4.599999904632568359375,
                    4.719999790191650390625,
                    4.639999866485595703125,
                    4.559999942779541015625,
                    4.519999980926513671875,
                    4.5799999237060546875,
                    4.5,
                    4.5799999237060546875,
                    4.599999904632568359375,
                    4.5,
                    4.480000019073486328125,
                    4.46000003814697265625,
                    4.519999980926513671875,
                    4.400000095367431640625,
                    4.400000095367431640625,
                    4.400000095367431640625,
                    4.480000019073486328125,
                    4.53999996185302734375,
                    4.559999942779541015625,
                    4.61999988555908203125,
                    4.659999847412109375,
                    4.80000019073486328125,
                    4.69999980926513671875,
                    4.659999847412109375,
                    4.659999847412109375,
                    4.69999980926513671875,
                    4.7399997711181640625,
                    4.780000209808349609375,
                    4.80000019073486328125,
                    4.780000209808349609375,
                    4.780000209808349609375,
                    4.88000011444091796875,
                    4.9200000762939453125,
                    4.860000133514404296875,
                    4.840000152587890625,
                    4.980000019073486328125,
                    4.860000133514404296875,
                    4.780000209808349609375,
                    4.820000171661376953125,
                    4.840000152587890625,
                    4.840000152587890625,
                    4.900000095367431640625,
                    4.900000095367431640625,
                    4.860000133514404296875,
                    4.88000011444091796875,
                    4.9200000762939453125,
                    4.900000095367431640625,
                    4.88000011444091796875,
                    4.900000095367431640625,
                    4.900000095367431640625,
                    5.30000019073486328125,
                    5.349999904632568359375,
                    4.900000095367431640625,
                    4.88000011444091796875,
                    4.900000095367431640625,
                    4.900000095367431640625,
                    4.980000019073486328125,
                    5,
                    5.099999904632568359375,
                    5.05000019073486328125,
                    5.150000095367431640625,
                    5.25,
                    5.099999904632568359375,
                    5.19999980926513671875,
                    5.150000095367431640625,
                    5.19999980926513671875,
                    5.099999904632568359375,
                    5.099999904632568359375,
                    5.150000095367431640625,
                    5.150000095367431640625,
                    5.19999980926513671875,
                    5.25,
                    5.349999904632568359375,
                    5.349999904632568359375,
                    5.44999980926513671875,
                    5.55000019073486328125,
                    5.599999904632568359375,
                    5.5,
                    5.349999904632568359375,
                    5.44999980926513671875,
                    5.44999980926513671875,
                    5.75,
                    5.80000019073486328125,
                    5.80000019073486328125,
                    5.849999904632568359375
                ],
                "low": [
                    5.30000019073486328125,
                    5.25,
                    5.25,
                    5.30000019073486328125,
                    5.30000019073486328125,
                    5.05000019073486328125,
                    5,
                    5,
                    5.099999904632568359375,
                    5.150000095367431640625,
                    5.25,
                    5.25,
                    5.400000095367431640625,
                    5.400000095367431640625,
                    5.349999904632568359375,
                    5.349999904632568359375,
                    5.30000019073486328125,
                    5.30000019073486328125,
                    5.25,
                    5.30000019073486328125,
                    5.19999980926513671875,
                    5.25,
                    5.25,
                    5.19999980926513671875,
                    5.25,
                    5.30000019073486328125,
                    5.400000095367431640625,
                    5.349999904632568359375,
                    5.349999904632568359375,
                    5.349999904632568359375,
                    5.400000095367431640625,
                    5.400000095367431640625,
                    5.400000095367431640625,
                    5.349999904632568359375,
                    5.349999904632568359375,
                    5.349999904632568359375,
                    5.30000019073486328125,
                    5.25,
                    5.25,
                    5,
                    4.980000019073486328125,
                    4.559999942779541015625,
                    4.46000003814697265625,
                    4.46000003814697265625,
                    4.4200000762939453125,
                    4.599999904632568359375,
                    4.61999988555908203125,
                    4.46000003814697265625,
                    4.480000019073486328125,
                    4.440000057220458984375,
                    3.7999999523162841796875,
                    2.8599998950958251953125,
                    3.5,
                    3.5,
                    3.7400000095367431640625,
                    3.900000095367431640625,
                    3.7000000476837158203125,
                    3.7999999523162841796875,
                    3.53999996185302734375,
                    3.53999996185302734375,
                    3.7000000476837158203125,
                    3.7799999713897705078125,
                    3.7799999713897705078125,
                    3.6800000667572021484375,
                    3.6600000858306884765625,
                    3.6800000667572021484375,
                    3.7000000476837158203125,
                    3.7000000476837158203125,
                    3.6600000858306884765625,
                    3.7400000095367431640625,
                    3.7799999713897705078125,
                    3.7400000095367431640625,
                    3.7200000286102294921875,
                    3.7599999904632568359375,
                    3.6800000667572021484375,
                    3.3199999332427978515625,
                    3.6600000858306884765625,
                    3.7200000286102294921875,
                    3.7400000095367431640625,
                    3.7400000095367431640625,
                    3.7200000286102294921875,
                    3.7599999904632568359375,
                    3.6800000667572021484375,
                    3.8399999141693115234375,
                    3.980000019073486328125,
                    3.96000003814697265625,
                    3.980000019073486328125,
                    3.980000019073486328125,
                    4,
                    4.019999980926513671875,
                    4.019999980926513671875,
                    3.980000019073486328125,
                    3.9200000762939453125,
                    4,
                    4.019999980926513671875,
                    4.03999996185302734375,
                    4.03999996185302734375,
                    4.099999904632568359375,
                    4.099999904632568359375,
                    4.0799999237060546875,
                    4.139999866485595703125,
                    4.19999980926513671875,
                    4.159999847412109375,
                    4.19999980926513671875,
                    4.179999828338623046875,
                    4.19999980926513671875,
                    4.219999790191650390625,
                    4.2600002288818359375,
                    4.280000209808349609375,
                    4.280000209808349609375,
                    4.280000209808349609375,
                    4.19999980926513671875,
                    4.2399997711181640625,
                    4.2399997711181640625,
                    4.2399997711181640625,
                    4.2600002288818359375,
                    4.30000019073486328125,
                    4.19999980926513671875,
                    4.2600002288818359375,
                    4.2600002288818359375,
                    4.2600002288818359375,
                    4.219999790191650390625,
                    4.219999790191650390625,
                    4.2399997711181640625,
                    4.2600002288818359375,
                    4.2600002288818359375,
                    4.280000209808349609375,
                    4.30000019073486328125,
                    4.320000171661376953125,
                    4.30000019073486328125,
                    4.30000019073486328125,
                    4.30000019073486328125,
                    4.30000019073486328125,
                    4.320000171661376953125,
                    4.340000152587890625,
                    4.360000133514404296875,
                    4.340000152587890625,
                    4.360000133514404296875,
                    4.360000133514404296875,
                    4.360000133514404296875,
                    4.340000152587890625,
                    4.400000095367431640625,
                    4.4200000762939453125,
                    4.400000095367431640625,
                    4.400000095367431640625,
                    4.46000003814697265625,
                    4.440000057220458984375,
                    4.480000019073486328125,
                    4.440000057220458984375,
                    4.5799999237060546875,
                    4.639999866485595703125,
                    4.440000057220458984375,
                    4.480000019073486328125,
                    4.5,
                    4.46000003814697265625,
                    4.46000003814697265625,
                    4.480000019073486328125,
                    4.519999980926513671875,
                    4.519999980926513671875,
                    4.480000019073486328125,
                    4.639999866485595703125,
                    4.559999942779541015625,
                    4.480000019073486328125,
                    4.480000019073486328125,
                    4.5,
                    4.480000019073486328125,
                    4.5,
                    4.480000019073486328125,
                    4.320000171661376953125,
                    4.320000171661376953125,
                    4.4200000762939453125,
                    4.400000095367431640625,
                    4.360000133514404296875,
                    4.360000133514404296875,
                    4.340000152587890625,
                    4.38000011444091796875,
                    4.480000019073486328125,
                    4.5,
                    4.53999996185302734375,
                    4.599999904632568359375,
                    4.360000133514404296875,
                    4.659999847412109375,
                    4.659999847412109375,
                    4.61999988555908203125,
                    4.639999866485595703125,
                    4.679999828338623046875,
                    4.679999828338623046875,
                    4.7600002288818359375,
                    4.7600002288818359375,
                    4.7600002288818359375,
                    4.7600002288818359375,
                    4.860000133514404296875,
                    4.80000019073486328125,
                    4.7600002288818359375,
                    4.7399997711181640625,
                    4.679999828338623046875,
                    4.719999790191650390625,
                    4.69999980926513671875,
                    4.80000019073486328125,
                    4.719999790191650390625,
                    4.860000133514404296875,
                    4.820000171661376953125,
                    4.780000209808349609375,
                    4.80000019073486328125,
                    4.860000133514404296875,
                    4.88000011444091796875,
                    4.7600002288818359375,
                    4.88000011444091796875,
                    4.88000011444091796875,
                    4.9200000762939453125,
                    4.840000152587890625,
                    4.7399997711181640625,
                    4.820000171661376953125,
                    4.860000133514404296875,
                    4.860000133514404296875,
                    4.88000011444091796875,
                    4.9200000762939453125,
                    4.940000057220458984375,
                    4.980000019073486328125,
                    4.980000019073486328125,
                    5,
                    5.05000019073486328125,
                    5.05000019073486328125,
                    5.099999904632568359375,
                    5.05000019073486328125,
                    5,
                    5.05000019073486328125,
                    5.05000019073486328125,
                    5.099999904632568359375,
                    5.099999904632568359375,
                    5.099999904632568359375,
                    5.150000095367431640625,
                    5.25,
                    5.25,
                    5.44999980926513671875,
                    5.5,
                    5.25,
                    5.25,
                    5.30000019073486328125,
                    5.349999904632568359375,
                    5.44999980926513671875,
                    5.599999904632568359375,
                    5.69999980926513671875,
                    5.69999980926513671875
                ],
                "close": [
                    5.349999904632568359375,
                    5.30000019073486328125,
                    5.30000019073486328125,
                    5.349999904632568359375,
                    5.349999904632568359375,
                    5.05000019073486328125,
                    5,
                    5.099999904632568359375,
                    5.25,
                    5.30000019073486328125,
                    5.25,
                    5.25,
                    5.400000095367431640625,
                    5.400000095367431640625,
                    5.349999904632568359375,
                    5.349999904632568359375,
                    5.30000019073486328125,
                    5.30000019073486328125,
                    5.30000019073486328125,
                    5.30000019073486328125,
                    5.25,
                    5.25,
                    5.25,
                    5.25,
                    5.349999904632568359375,
                    5.44999980926513671875,
                    5.400000095367431640625,
                    5.349999904632568359375,
                    5.400000095367431640625,
                    5.400000095367431640625,
                    5.400000095367431640625,
                    5.400000095367431640625,
                    5.400000095367431640625,
                    5.400000095367431640625,
                    5.349999904632568359375,
                    5.349999904632568359375,
                    5.349999904632568359375,
                    5.30000019073486328125,
                    5.30000019073486328125,
                    5.05000019073486328125,
                    5.150000095367431640625,
                    4.599999904632568359375,
                    4.480000019073486328125,
                    4.5,
                    4.5,
                    4.599999904632568359375,
                    4.61999988555908203125,
                    4.53999996185302734375,
                    4.480000019073486328125,
                    4.46000003814697265625,
                    3.9200000762939453125,
                    4,
                    3.900000095367431640625,
                    4.03999996185302734375,
                    4.059999942779541015625,
                    3.900000095367431640625,
                    3.940000057220458984375,
                    3.7999999523162841796875,
                    3.7799999713897705078125,
                    3.61999988555908203125,
                    3.7999999523162841796875,
                    3.7999999523162841796875,
                    3.7799999713897705078125,
                    3.6800000667572021484375,
                    3.6800000667572021484375,
                    3.7200000286102294921875,
                    3.7000000476837158203125,
                    3.7000000476837158203125,
                    3.7000000476837158203125,
                    3.7599999904632568359375,
                    3.7799999713897705078125,
                    3.7799999713897705078125,
                    3.7599999904632568359375,
                    3.8199999332427978515625,
                    3.7000000476837158203125,
                    3.6600000858306884765625,
                    3.7200000286102294921875,
                    3.7400000095367431640625,
                    3.7400000095367431640625,
                    3.7599999904632568359375,
                    3.7799999713897705078125,
                    3.8199999332427978515625,
                    3.8199999332427978515625,
                    4.019999980926513671875,
                    3.980000019073486328125,
                    4.019999980926513671875,
                    3.980000019073486328125,
                    4,
                    4,
                    4.059999942779541015625,
                    4.019999980926513671875,
                    3.980000019073486328125,
                    3.980000019073486328125,
                    4.019999980926513671875,
                    4.059999942779541015625,
                    4.099999904632568359375,
                    4.11999988555908203125,
                    4.11999988555908203125,
                    4.11999988555908203125,
                    4.11999988555908203125,
                    4.219999790191650390625,
                    4.19999980926513671875,
                    4.159999847412109375,
                    4.19999980926513671875,
                    4.219999790191650390625,
                    4.2399997711181640625,
                    4.2600002288818359375,
                    4.30000019073486328125,
                    4.280000209808349609375,
                    4.340000152587890625,
                    4.30000019073486328125,
                    4.2600002288818359375,
                    4.2399997711181640625,
                    4.2399997711181640625,
                    4.2600002288818359375,
                    4.280000209808349609375,
                    4.38000011444091796875,
                    4.2600002288818359375,
                    4.38000011444091796875,
                    4.2600002288818359375,
                    4.280000209808349609375,
                    4.219999790191650390625,
                    4.2399997711181640625,
                    4.2600002288818359375,
                    4.2600002288818359375,
                    4.30000019073486328125,
                    4.280000209808349609375,
                    4.320000171661376953125,
                    4.320000171661376953125,
                    4.320000171661376953125,
                    4.30000019073486328125,
                    4.30000019073486328125,
                    4.320000171661376953125,
                    4.340000152587890625,
                    4.360000133514404296875,
                    4.360000133514404296875,
                    4.340000152587890625,
                    4.38000011444091796875,
                    4.360000133514404296875,
                    4.38000011444091796875,
                    4.46000003814697265625,
                    4.400000095367431640625,
                    4.440000057220458984375,
                    4.440000057220458984375,
                    4.46000003814697265625,
                    4.46000003814697265625,
                    4.46000003814697265625,
                    4.480000019073486328125,
                    4.599999904632568359375,
                    4.659999847412109375,
                    4.679999828338623046875,
                    4.639999866485595703125,
                    4.53999996185302734375,
                    4.519999980926513671875,
                    4.480000019073486328125,
                    4.46000003814697265625,
                    4.519999980926513671875,
                    4.559999942779541015625,
                    4.519999980926513671875,
                    4.599999904632568359375,
                    4.639999866485595703125,
                    4.559999942779541015625,
                    4.559999942779541015625,
                    4.480000019073486328125,
                    4.5,
                    4.480000019073486328125,
                    4.5,
                    4.480000019073486328125,
                    4.340000152587890625,
                    4.46000003814697265625,
                    4.4200000762939453125,
                    4.400000095367431640625,
                    4.400000095367431640625,
                    4.400000095367431640625,
                    4.360000133514404296875,
                    4.480000019073486328125,
                    4.519999980926513671875,
                    4.53999996185302734375,
                    4.559999942779541015625,
                    4.659999847412109375,
                    4.659999847412109375,
                    4.679999828338623046875,
                    4.659999847412109375,
                    4.639999866485595703125,
                    4.69999980926513671875,
                    4.679999828338623046875,
                    4.7399997711181640625,
                    4.7600002288818359375,
                    4.780000209808349609375,
                    4.7600002288818359375,
                    4.88000011444091796875,
                    4.900000095367431640625,
                    4.840000152587890625,
                    4.820000171661376953125,
                    4.780000209808349609375,
                    4.719999790191650390625,
                    4.7399997711181640625,
                    4.80000019073486328125,
                    4.820000171661376953125,
                    4.840000152587890625,
                    4.860000133514404296875,
                    4.840000152587890625,
                    4.780000209808349609375,
                    4.88000011444091796875,
                    4.88000011444091796875,
                    4.88000011444091796875,
                    4.88000011444091796875,
                    4.88000011444091796875,
                    4.900000095367431640625,
                    5.25,
                    4.840000152587890625,
                    4.900000095367431640625,
                    4.860000133514404296875,
                    4.88000011444091796875,
                    4.88000011444091796875,
                    4.9200000762939453125,
                    4.940000057220458984375,
                    5,
                    5.05000019073486328125,
                    5.05000019073486328125,
                    5.05000019073486328125,
                    5.05000019073486328125,
                    5.05000019073486328125,
                    5.150000095367431640625,
                    5.099999904632568359375,
                    5,
                    5.099999904632568359375,
                    5.099999904632568359375,
                    5.099999904632568359375,
                    5.099999904632568359375,
                    5.19999980926513671875,
                    5.349999904632568359375,
                    5.349999904632568359375,
                    5.44999980926513671875,
                    5.5,
                    5.599999904632568359375,
                    5.25,
                    5.349999904632568359375,
                    5.400000095367431640625,
                    5.44999980926513671875,
                    5.599999904632568359375,
                    5.69999980926513671875,
                    5.80000019073486328125,
                    5.80000019073486328125
                ],
                "volume": [
                    468400,
                    560300,
                    501200,
                    223900,
                    288800,
                    1497700,
                    1500300,
                    253900,
                    174000,
                    144400,
                    191800,
                    149100,
                    686700,
                    305800,
                    161200,
                    52600,
                    102900,
                    42500,
                    299400,
                    74400,
                    75900,
                    32900,
                    93300,
                    84800,
                    57500,
                    49100,
                    91200,
                    66300,
                    44900,
                    165900,
                    171600,
                    171300,
                    106400,
                    47200,
                    36800,
                    20700,
                    139200,
                    170400,
                    19800,
                    420400,
                    66100,
                    811400,
                    533900,
                    133800,
                    378100,
                    197300,
                    36800,
                    166300,
                    90600,
                    179900,
                    246500,
                    179900,
                    143400,
                    63000,
                    1200,
                    38500,
                    89300,
                    10400,
                    22400,
                    13100,
                    21700,
                    61400,
                    500,
                    51600,
                    166800,
                    9200,
                    104500,
                    330700,
                    50700,
                    164800,
                    37100,
                    78900,
                    289200,
                    128900,
                    142200,
                    137200,
                    115600,
                    27300,
                    62700,
                    62200,
                    46600,
                    46800,
                    154600,
                    241300,
                    284600,
                    36700,
                    57900,
                    37500,
                    20800,
                    627100,
                    141500,
                    409700,
                    493200,
                    52500,
                    212400,
                    86700,
                    101800,
                    80300,
                    66900,
                    265300,
                    78800,
                    235100,
                    122100,
                    241700,
                    306100,
                    318200,
                    102900,
                    129300,
                    119900,
                    23100,
                    158600,
                    210500,
                    260200,
                    197400,
                    48200,
                    17800,
                    202400,
                    430400,
                    242700,
                    81400,
                    150100,
                    885400,
                    227300,
                    81700,
                    50300,
                    176500,
                    108100,
                    157900,
                    73500,
                    10200,
                    63600,
                    140400,
                    112500,
                    12200,
                    29100,
                    43000,
                    11500,
                    155800,
                    30800,
                    44500,
                    240900,
                    79200,
                    210400,
                    64200,
                    40300,
                    3800,
                    9200,
                    40000,
                    58400,
                    34400,
                    49000,
                    37000,
                    327000,
                    56600,
                    96000,
                    22300,
                    292200,
                    509400,
                    27200,
                    281900,
                    46300,
                    20800,
                    70200,
                    3000,
                    16500,
                    200,
                    54100,
                    15400,
                    30500,
                    45300,
                    4900,
                    45200,
                    84300,
                    100500,
                    59700,
                    275700,
                    311200,
                    211300,
                    190400,
                    615800,
                    184900,
                    92500,
                    52600,
                    93800,
                    192900,
                    91800,
                    146100,
                    144600,
                    25800,
                    87400,
                    31400,
                    96800,
                    99500,
                    11200,
                    56600,
                    13800,
                    17100,
                    72300,
                    64600,
                    101400,
                    199500,
                    29000,
                    24800,
                    20000,
                    1244400,
                    71600,
                    21900,
                    50900,
                    576600,
                    1300900,
                    951300,
                    587200,
                    144800,
                    207000,
                    170100,
                    219100,
                    56100,
                    143800,
                    83800,
                    679100,
                    515300,
                    593700,
                    888900,
                    133900,
                    598800,
                    685300,
                    51100,
                    447100,
                    410700,
                    503100,
                    460600,
                    294100,
                    188800,
                    371100,
                    224000,
                    189400,
                    342700,
                    175300,
                    147100,
                    180100,
                    518200,
                    319400,
                    77400,
                    335200
                ]
            }
        }
    }
}